{
  "required": true,
  "minVersion": "0.8",
  "package": "io.gitlab.jfronny.betterwhitelist.server.mixin",
  "compatibilityLevel": "JAVA_17",
  "server": [
    "ServerLoginNetworkHandlerAccessor"
  ],
  "injectors": {
    "defaultRequire": 1
  }
}
